6
604
606
616
618
672
676

12
0404
0406
0434
0438
0492
0494
0604
0606
0616
0618
0672
0676

2
16
18

20
27272
27276
27292
27294
27604
27606
27616
27618
27672
27676
29272
29276
29292
29294
29404
29406
29434
29438
29492
29494

10
3404
3406
3434
3438
3492
3494
3816
3818
3834
3838

16
4040
4043
4049
4060
4061
4067
4340
4343
4349
4381
4383
4927
4929
4940
4943
4949

0

84
604040
604043
604049
604060
604061
604067
604340
604343
604349
604381
604383
604927
604929
604940
604943
604949
606040
606043
606049
606060
606061
606067
606160
606161
606167
606181
606183
606727
606729
606760
606761
606767
616040
616043
616049
616060
616061
616067
616160
616161
616167
616181
616183
616727
616729
616760
616761
616767
618160
618161
618167
618181
618183
618340
618343
618349
618381
618383
672727
672729
672760
672761
672767
672927
672929
672940
672943
672949
676040
676043
676049
676060
676061
676067
676160
676161
676167
676181
676183
676727
676729
676760
676761
676767

136
7272727
7272729
7272760
7272761
7272767
7272927
7272929
7272940
7272943
7272949
7276040
7276043
7276049
7276060
7276061
7276067
7276160
7276161
7276167
7276181
7276183
7276727
7276729
7276760
7276761
7276767
7292727
7292729
7292760
7292761
7292767
7292927
7292929
7292940
7292943
7292949
7294040
7294043
7294049
7294060
7294061
7294067
7294340
7294343
7294349
7294381
7294383
7294927
7294929
7294940
7294943
7294949
7604040
7604043
7604049
7604060
7604061
7604067
7604340
7604343
7604349
7604381
7604383
7604927
7604929
7604940
7604943
7604949
7606040
7606043
7606049
7606060
7606061
7606067
7606160
7606161
7606167
7606181
7606183
7606727
7606729
7606760
7606761
7606767
7616040
7616043
7616049
7616060
7616061
7616067
7616160
7616161
7616167
7616181
7616183
7616727
7616729
7616760
7616761
7616767
7618160
7618161
7618167
7618181
7618183
7618340
7618343
7618349
7618381
7618383
7672727
7672729
7672760
7672761
7672767
7672927
7672929
7672940
7672943
7672949
7676040
7676043
7676049
7676060
7676061
7676067
7676160
7676161
7676167
7676181
7676183
7676727
7676729
7676760
7676761
7676767

272
81604040
81604043
81604049
81604060
81604061
81604067
81604340
81604343
81604349
81604381
81604383
81604927
81604929
81604940
81604943
81604949
81606040
81606043
81606049
81606060
81606061
81606067
81606160
81606161
81606167
81606181
81606183
81606727
81606729
81606760
81606761
81606767
81616040
81616043
81616049
81616060
81616061
81616067
81616160
81616161
81616167
81616181
81616183
81616727
81616729
81616760
81616761
81616767
81618160
81618161
81618167
81618181
81618183
81618340
81618343
81618349
81618381
81618383
81672727
81672729
81672760
81672761
81672767
81672927
81672929
81672940
81672943
81672949
81676040
81676043
81676049
81676060
81676061
81676067
81676160
81676161
81676167
81676181
81676183
81676727
81676729
81676760
81676761
81676767
81816040
81816043
81816049
81816060
81816061
81816067
81816160
81816161
81816167
81816181
81816183
81816727
81816729
81816760
81816761
81816767
81818160
81818161
81818167
81818181
81818183
81818340
81818343
81818349
81818381
81818383
81834040
81834043
81834049
81834060
81834061
81834067
81834340
81834343
81834349
81834381
81834383
81834927
81834929
81834940
81834943
81834949
81838160
81838161
81838167
81838181
81838183
81838340
81838343
81838349
81838381
81838383
83404040
83404043
83404049
83404060
83404061
83404067
83404340
83404343
83404349
83404381
83404383
83404927
83404929
83404940
83404943
83404949
83406040
83406043
83406049
83406060
83406061
83406067
83406160
83406161
83406167
83406181
83406183
83406727
83406729
83406760
83406761
83406767
83434040
83434043
83434049
83434060
83434061
83434067
83434340
83434343
83434349
83434381
83434383
83434927
83434929
83434940
83434943
83434949
83438160
83438161
83438167
83438181
83438183
83438340
83438343
83438349
83438381
83438383
83492727
83492729
83492760
83492761
83492767
83492927
83492929
83492940
83492943
83492949
83494040
83494043
83494049
83494060
83494061
83494067
83494340
83494343
83494349
83494381
83494383
83494927
83494929
83494940
83494943
83494949
83816040
83816043
83816049
83816060
83816061
83816067
83816160
83816161
83816167
83816181
83816183
83816727
83816729
83816760
83816761
83816767
83818160
83818161
83818167
83818181
83818183
83818340
83818343
83818349
83818381
83818383
83834040
83834043
83834049
83834060
83834061
83834067
83834340
83834343
83834349
83834381
83834383
83834927
83834929
83834940
83834943
83834949
83838160
83838161
83838167
83838181
83838183
83838340
83838343
83838349
83838381
83838383

712
927272727
927272729
927272760
927272761
927272767
927272927
927272929
927272940
927272943
927272949
927276040
927276043
927276049
927276060
927276061
927276067
927276160
927276161
927276167
927276181
927276183
927276727
927276729
927276760
927276761
927276767
927292727
927292729
927292760
927292761
927292767
927292927
927292929
927292940
927292943
927292949
927294040
927294043
927294049
927294060
927294061
927294067
927294340
927294343
927294349
927294381
927294383
927294927
927294929
927294940
927294943
927294949
927604040
927604043
927604049
927604060
927604061
927604067
927604340
927604343
927604349
927604381
927604383
927604927
927604929
927604940
927604943
927604949
927606040
927606043
927606049
927606060
927606061
927606067
927606160
927606161
927606167
927606181
927606183
927606727
927606729
927606760
927606761
927606767
927616040
927616043
927616049
927616060
927616061
927616067
927616160
927616161
927616167
927616181
927616183
927616727
927616729
927616760
927616761
927616767
927618160
927618161
927618167
927618181
927618183
927618340
927618343
927618349
927618381
927618383
927672727
927672729
927672760
927672761
927672767
927672927
927672929
927672940
927672943
927672949
927676040
927676043
927676049
927676060
927676061
927676067
927676160
927676161
927676167
927676181
927676183
927676727
927676729
927676760
927676761
927676767
929272727
929272729
929272760
929272761
929272767
929272927
929272929
929272940
929272943
929272949
929276040
929276043
929276049
929276060
929276061
929276067
929276160
929276161
929276167
929276181
929276183
929276727
929276729
929276760
929276761
929276767
929292727
929292729
929292760
929292761
929292767
929292927
929292929
929292940
929292943
929292949
929294040
929294043
929294049
929294060
929294061
929294067
929294340
929294343
929294349
929294381
929294383
929294927
929294929
929294940
929294943
929294949
929404040
929404043
929404049
929404060
929404061
929404067
929404340
929404343
929404349
929404381
929404383
929404927
929404929
929404940
929404943
929404949
929406040
929406043
929406049
929406060
929406061
929406067
929406160
929406161
929406167
929406181
929406183
929406727
929406729
929406760
929406761
929406767
929434040
929434043
929434049
929434060
929434061
929434067
929434340
929434343
929434349
929434381
929434383
929434927
929434929
929434940
929434943
929434949
929438160
929438161
929438167
929438181
929438183
929438340
929438343
929438349
929438381
929438383
929492727
929492729
929492760
929492761
929492767
929492927
929492929
929492940
929492943
929492949
929494040
929494043
929494049
929494060
929494061
929494067
929494340
929494343
929494349
929494381
929494383
929494927
929494929
929494940
929494943
929494949
940404040
940404043
940404049
940404060
940404061
940404067
940404340
940404343
940404349
940404381
940404383
940404927
940404929
940404940
940404943
940404949
940406040
940406043
940406049
940406060
940406061
940406067
940406160
940406161
940406167
940406181
940406183
940406727
940406729
940406760
940406761
940406767
940434040
940434043
940434049
940434060
940434061
940434067
940434340
940434343
940434349
940434381
940434383
940434927
940434929
940434940
940434943
940434949
940438160
940438161
940438167
940438181
940438183
940438340
940438343
940438349
940438381
940438383
940492727
940492729
940492760
940492761
940492767
940492927
940492929
940492940
940492943
940492949
940494040
940494043
940494049
940494060
940494061
940494067
940494340
940494343
940494349
940494381
940494383
940494927
940494929
940494940
940494943
940494949
940604040
940604043
940604049
940604060
940604061
940604067
940604340
940604343
940604349
940604381
940604383
940604927
940604929
940604940
940604943
940604949
940606040
940606043
940606049
940606060
940606061
940606067
940606160
940606161
940606167
940606181
940606183
940606727
940606729
940606760
940606761
940606767
940616040
940616043
940616049
940616060
940616061
940616067
940616160
940616161
940616167
940616181
940616183
940616727
940616729
940616760
940616761
940616767
940618160
940618161
940618167
940618181
940618183
940618340
940618343
940618349
940618381
940618383
940672727
940672729
940672760
940672761
940672767
940672927
940672929
940672940
940672943
940672949
940676040
940676043
940676049
940676060
940676061
940676067
940676160
940676161
940676167
940676181
940676183
940676727
940676729
940676760
940676761
940676767
943404040
943404043
943404049
943404060
943404061
943404067
943404340
943404343
943404349
943404381
943404383
943404927
943404929
943404940
943404943
943404949
943406040
943406043
943406049
943406060
943406061
943406067
943406160
943406161
943406167
943406181
943406183
943406727
943406729
943406760
943406761
943406767
943434040
943434043
943434049
943434060
943434061
943434067
943434340
943434343
943434349
943434381
943434383
943434927
943434929
943434940
943434943
943434949
943438160
943438161
943438167
943438181
943438183
943438340
943438343
943438349
943438381
943438383
943492727
943492729
943492760
943492761
943492767
943492927
943492929
943492940
943492943
943492949
943494040
943494043
943494049
943494060
943494061
943494067
943494340
943494343
943494349
943494381
943494383
943494927
943494929
943494940
943494943
943494949
943816040
943816043
943816049
943816060
943816061
943816067
943816160
943816161
943816167
943816181
943816183
943816727
943816729
943816760
943816761
943816767
943818160
943818161
943818167
943818181
943818183
943818340
943818343
943818349
943818381
943818383
943834040
943834043
943834049
943834060
943834061
943834067
943834340
943834343
943834349
943834381
943834383
943834927
943834929
943834940
943834943
943834949
943838160
943838161
943838167
943838181
943838183
943838340
943838343
943838349
943838381
943838383
949272727
949272729
949272760
949272761
949272767
949272927
949272929
949272940
949272943
949272949
949276040
949276043
949276049
949276060
949276061
949276067
949276160
949276161
949276167
949276181
949276183
949276727
949276729
949276760
949276761
949276767
949292727
949292729
949292760
949292761
949292767
949292927
949292929
949292940
949292943
949292949
949294040
949294043
949294049
949294060
949294061
949294067
949294340
949294343
949294349
949294381
949294383
949294927
949294929
949294940
949294943
949294949
949404040
949404043
949404049
949404060
949404061
949404067
949404340
949404343
949404349
949404381
949404383
949404927
949404929
949404940
949404943
949404949
949406040
949406043
949406049
949406060
949406061
949406067
949406160
949406161
949406167
949406181
949406183
949406727
949406729
949406760
949406761
949406767
949434040
949434043
949434049
949434060
949434061
949434067
949434340
949434343
949434349
949434381
949434383
949434927
949434929
949434940
949434943
949434949
949438160
949438161
949438167
949438181
949438183
949438340
949438343
949438349
949438381
949438383
949492727
949492729
949492760
949492761
949492767
949492927
949492929
949492940
949492943
949492949
949494040
949494043
949494049
949494060
949494061
949494067
949494340
949494343
949494349
949494381
949494383
949494927
949494929
949494940
949494943
949494949
